<?xml version="1.0" encoding="UTF-8"?>
<svg id="svg2" width="159.45" height="74.409" viewBox="0 0 159.45 74.409" version="1.0" xmlns="http://www.w3.org/2000/svg" xmlns:cc="http://web.resource.org/cc/" xmlns:dc="http://purl.org/dc/elements/1.1/" xmlns:rdf="http://www.w3.org/1999/02/22-rdf-syntax-ns#">
 <metadata id="metadata39">
  <rdf:RDF>
   <cc:Work rdf:about="">
    <dc:format>image/svg+xml</dc:format>
    <dc:type rdf:resource="http://purl.org/dc/dcmitype/StillImage"/>
   </cc:Work>
  </rdf:RDF>
 </metadata>
 <g id="g4" transform="matrix(1.25 0 0 1.25 42.732 37.002)" fill-rule="evenodd" stroke-width=".17351pt">
  <path id="path6" d="m23.02 17.934c0 8.1317-4.1493 10.753-12.527 10.753-3.4314 0-6.2641-0.6832-7.94-1.2539l0.35898-5.3955c2.1944 1.0259 4.0298 1.6342 7.0222 1.6342 4.1493 0 6.3835-1.8619 6.3835-5.7379v-1.0636h-0.08c-1.7153 2.3175-4.1094 3.3821-6.9816 3.3821-5.7053 0-9.2561-4.104-9.2561-9.9552 0-5.8899 2.912-10.298 9.3755-10.298 3.0723 0 5.5457 1.5962 7.0616 4.0276h0.08v-3.5716h6.5033v17.478zm-11.53-2.9254c2.5534 0 4.5883-2.0519 4.5883-5.0916 0-2.2035-1.3564-4.6733-4.5883-4.6733-2.6732 0-4.0693 2.2411-4.0693 4.9389 0 3.0781 1.915 4.826 4.0693 4.826z"/>
 </g>
 <g id="g8" transform="matrix(1.25 0 0 1.25 13.487 37.002)" fill-rule="evenodd" stroke-width=".17351pt">
  <path id="path10" d="m0 10.373c0-6.5731 4.6114-10.373 10.666-10.373 6.0549 0 10.666 3.8 10.666 10.373 0 6.5355-4.6111 10.335-10.666 10.335-6.0544 0-10.666-3.7997-10.666-10.335zm14.784 0c0-2.9637-1.1967-5.5852-4.1185-5.5852-2.9216 0-4.1184 2.6214-4.1184 5.5852 0 2.9262 1.1967 5.5476 4.1184 5.5476 2.9218 0 4.1185-2.6214 4.1185-5.5476z"/>
 </g>
 <g id="g12" transform="matrix(1.25 0 0 1.25 87.129 18.452)" stroke-width=".17351pt">
  <path id="path14" d="m0 0h7.1818v35.092h-7.1818v-35.092"/>
 </g>
 <g id="g16" transform="matrix(1.25 0 0 1.25 1.7717 28.561)" stroke-width=".17351pt">
  <path id="path18" d="m0 0h7.3596v29.481h11.396v5.2435h-18.755v-34.725"/>
 </g>
 <g id="g20" transform="matrix(1.25 0 0 1.25 129.12 18.452)" fill-rule="evenodd" stroke-width=".17351pt">
  <path id="path22" d="m0 0h7.0682v17.841h0.07781c1.7964-2.2035 4.1782-3.0018 6.99-3.0018 5.6232 0 8.7081 5.206 8.7081 9.9936 0 5.8515-3.2413 10.715-9.2944 10.715-3.2409 0-6.0911-1.7859-6.9896-3.9897h-0.07817v3.5341h-6.4819v-35.092zm11.324 20.083c-2.5773 0-4.2951 2.2038-4.2951 5.1672 0 2.8881 1.9527 5.0532 4.2951 5.0532 2.6554 0 4.2567-2.1651 4.2567-5.3188 0-2.6222-1.5231-4.9016-4.2567-4.9016z"/>
 </g>
 <g id="g24" transform="matrix(1.25 0 0 1.25 99.34 37.002)" fill-rule="evenodd" stroke-width=".17351pt">
  <path id="path26" d="m14.602 20.253c-0.0398-1.0646-0.1599-2.0898-0.1599-3.1161h-0.0796c-1.6361 2.4698-3.6307 3.5717-6.5833 3.5717-4.1091 0-7.7796-1.9378-7.7796-6.2315 0-6.0419 6.9024-6.7631 10.732-6.7631 1.1572 0 2.4336 0.11363 3.3513 0.26562-0.0398-2.6978-2.1543-3.4197-4.7478-3.4197-2.3142 0-4.628 0.41797-6.6231 1.4822l-0.11905-4.6356c2.553-0.98864 5.2262-1.4062 8.2981-1.4062 5.3062 0 9.8948 2.1654 9.8948 8.2073v7.3714c0 1.5579 0.0793 3.1161 0.3988 4.674h-6.5829zm-4.9476-4.104c2.713 0 4.4286-2.3555 4.4286-4.674-0.9177-0.0376-1.9549-0.1136-3.0322-0.1136-2.4336 0-4.349 0.7215-4.349 2.6214 0 1.3682 1.2771 2.1662 2.9525 2.1662z"/>
 </g>
 <g id="g28" transform="matrix(1.25 0 0 1.25 64.078 18.452)" fill="#ff8b19" stroke-width=".17351pt">
  <path id="path30" d="m8.55 0v0.014403h-8.55v6.0676h8.55v29.01h7.1815v-35.092h-7.1815" fill="#ff8b19"/>
 </g>
 <g id="g32" transform="matrix(1.25 0 0 1.25 73.987 1.5484)" fill="#ff8c19" stroke-width=".17351pt">
  <path id="path34" d="m0 4.1805c0-2.309 1.872-4.1805 4.18-4.1805 2.3088 0 4.18 1.8716 4.18 4.1805 0 2.3087-1.8713 4.1802-4.18 4.1802-2.308 0-4.18-1.8716-4.18-4.1802" fill="#ff8c19"/>
 </g>
</svg>
